…
``` r
# Todas corridas por dia da semana, tipo de usuário e ano
all_trips %>% group_by(year, member_casual, day_of_week) %>%
        summarise(number_of_rides = n(),
                  average_duration = mean(ride_length)) %>%
        arrange(year, member_casual, day_of_week)
```

    ## `summarise()` has grouped output by 'year', 'member_casual'. You can override
    ## using the `.groups` argument.

    ## # A tibble: 28 × 5
    ## # Groups:   year, member_casual [4]
    ##    year  member_casual day_of_week   number_of_rides average_duration
    ##    <chr> <chr>         <ord>                   <int>            <dbl>
    ##  1 2021  casual        domingo                480356             35.3
    ##  2 2021  casual        segunda-feira          285992             30.3
    ##  3 2021  casual        terça-feira            274059             26.7
    ##  4 2021  casual        quarta-feira           278616             26.2
    ##  5 2021  casual        quinta-feira           285672             26.0
    ##  6 2021  casual        sexta-feira            363580             28.6
    ##  7 2021  casual        sábado                 557181             32.8
    ##  8 2021  member        domingo                375925             15.3
    ##  9 2021  member        segunda-feira          416018             12.9
    ## 10 2021  member        terça-feira            465347             12.6
    ## # … with 18 more rows
…
